{
  "posts": [
    {
      "id": 1,
      "title": "hello"
    }
  ],
  "profile": {
    "name": "typicode"
  },
  "form": {
    "content": [
      {
        "id": "668ce7a2a37767043ac34bde",
        "code": "VNPT-EFORM-2",
        "codePattern": null,
        "numberLength": null,
        "type": "form",
        "owner": {
          "id": "6672ab2d10180c5de312049c",
          "fullname": "EForm Admin T",
          "account": {
            "id": "6672ab2d10180c5de3120499",
            "username": [
              {
                "type": 4,
                "value": "eform_admin"
              }
            ]
          }
        },
        "agency": {
          "id": "633c58fbe97fb80685678ec6",
          "code": "congancantho",
          "name": "Công an Thành phố Cần Thơ",
          "ancestors": null,
          "parent": null,
          "tag": null,
          "level": null
        },
        "name": "Test dữ liệu địa chỉ",
        "display": null,
        "components": [
          {
            "label": "Họ và tên",
            "applyMaskOn": "change",
            "tableView": true,
            "validate": {
              "required": true
            },
            "validateWhenHidden": false,
            "key": "name",
            "type": "textfield",
            "attributes": {},
            "validateOn": "change",
            "conditional": {
              "show": null,
              "when": null,
              "eq": ""
            },
            "overlay": {
              "style": "",
              "left": "",
              "top": "",
              "width": "",
              "height": ""
            },
            "allowCalculateOverride": false
          },
          {
            "label": "Địa chỉ",
            "tableView": false,
            "defaultValue": "{}",
            "provider": "nominatim",
            "validateWhenHidden": false,
            "key": "address",
            "type": "address",
            "providerOptions": {
              "params": {
                "autocompleteOptions": {}
              }
            },
            "input": true,
            "components": [
              {
                "label": "Address 1",
                "tableView": false,
                "key": "address1",
                "type": "textfield",
                "input": true
              },
              {
                "label": "Address 2",
                "tableView": false,
                "key": "address2",
                "type": "textfield",
                "input": true
              },
              {
                "label": "City",
                "tableView": false,
                "key": "city",
                "type": "textfield",
                "input": true
              }
            ],
            "id": "ea8aw6f",
            "placeholder": "",
            "prefix": ""
          }
        ],
        "settings": null,
        "pdfComponents": null,
        "isImport": true,
        "cloneFrom": null,
        "status": 1,
        "createdDate": "2024-07-09T07:32:50.893+00:00",
        "updatedDate": "2024-07-10T09:41:13.092+00:00",
        "deploymentId": "test",
        "templateId": null
      },
      {
        "id": "668e56a834d7cd4ab15bd20a",
        "code": "FORM-3",
        "codePattern": null,
        "numberLength": null,
        "agency": {
          "id": "633c58fbe97fb80685678ec6",
          "code": "congancantho",
          "name": "Công an Thành phố Cần Thơ",
          "ancestors": null,
          "parent": null,
          "tag": null,
          "level": null
        },
        "tags": [
          {
            "id": "6673d86b00373c1f33868780",
            "code": null,
            "trans": null,
            "name": "Nhóm 01"
          }
        ],
        "name": "Biểu mẫu dành cho quy trình thủ tục hành chính",
        "display": null,
        "components": [
          {
            "label": "Họ và tên",
            "applyMaskOn": "change",
            "tableView": true,
            "validateWhenHidden": false,
            "key": "name",
            "type": "textfield",
            "input": true,
            "id": "e8hraof"
          },
          {
            "label": "Địa chỉ",
            "tableView": false,
            "defaultValue": "{}",
            "provider": "nominatim",
            "validateWhenHidden": false,
            "key": "address",
            "type": "address"
          },
          {
            "label": "Thẻ",
            "tableView": false,
            "validateWhenHidden": false,
            "key": "tags",
            "type": "tags",
            "input": true
          }
        ],
        "settings": null,
        "pdfComponents": null,
        "isImport": true,
        "cloneFrom": "668ce7a2a37767043ac34bde",
        "status": 1,
        "createdDate": "2024-07-10T09:38:48.030+00:00",
        "updatedDate": "2024-07-10T09:39:01.547+00:00",
        "deploymentId": "test",
        "templateId": null
      }
    ],
    "pageable": {
      "sort": {
        "sorted": false,
        "unsorted": true,
        "empty": true
      },
      "offset": 0,
      "pageNumber": 0,
      "pageSize": 10,
      "paged": true,
      "unpaged": false
    },
    "last": false,
    "totalPages": 8,
    "totalElements": 79,
    "size": 10,
    "number": 0,
    "sort": {
      "sorted": false,
      "unsorted": true,
      "empty": true
    },
    "numberOfElements": 10,
    "first": true,
    "empty": false
  }
}
